module storage

go 1.19

require (
	github.com/DATA-DOG/go-sqlmock v1.5.0
	github.com/go-kit/kit v0.12.0
	github.com/gorilla/mux v1.8.0
	github.com/joho/godotenv v1.4.0
	github.com/lib/pq v1.10.6
	github.com/stretchr/testify v1.8.0
)

require (
	github.com/davecgh/go-spew v1.1.1 // indirect
	github.com/go-kit/log v0.2.0 // indirect
	github.com/go-logfmt/logfmt v0.5.1 // indirect
	github.com/pmezard/go-difflib v1.0.0 // indirect
	gopkg.in/yaml.v3 v3.0.1 // indirect
)
